…
The dhfr dataset is included in the caret package. It contains the molecular composition of 325 different compounds, as well as a classification on whether or not they inhibit dyhydrofolate reductase (dhfr). There are 228 molecular quantities described for each compound.

```r
data(dhfr)
as.tibble(dhfr)
```

```
## # A tibble: 325 x 229
##    Y     moeGao_Abra_L moeGao_Abra_R moeGao_Abra_aci~ moeGao_Abra_bas~
##    <fct>         <dbl>         <dbl>            <dbl>            <dbl>
##  1 inac~         2.92        1.55              2.38              4.16 
##  2 inac~        -0.548      -0.157             0.0101            0.647
##  3 inac~         0.630       0.792             0.0101            2.73 
##  4 inac~        -2.09       -1.45              1.35             -0.267
##  5 inac~        -2.23       -1.39              0.524             0.472
##  6 inac~        -2.26       -1.43              0.524             0.572
##  7 inac~         0.865       0.303             0.0101            0.302
##  8 inac~         0.350      -0.363             0.670            -0.283
##  9 inac~         0.819      -0.00830           0.0101            0.302
## 10 inac~        -0.303      -0.434             0.0101           -1.39 
## # ... with 315 more rows, and 224 more variables: moeGao_Abra_pi <dbl>,
## #   moe2D_BCUT_PEOE_0 <dbl>, moe2D_BCUT_PEOE_1 <dbl>,
## #   moe2D_BCUT_PEOE_2 <dbl>, moe2D_BCUT_PEOE_3 <dbl>,
## #   moe2D_BCUT_SLOGP_0 <dbl>, moe2D_BCUT_SLOGP_1 <dbl>,
## #   moe2D_BCUT_SLOGP_2 <dbl>, moe2D_BCUT_SLOGP_3 <dbl>,
## #   moe2D_BCUT_SMR_0 <dbl>, moe2D_BCUT_SMR_1 <dbl>,
## #   moe2D_BCUT_SMR_2 <dbl>, moe2D_BCUT_SMR_3 <dbl>, moe2D_FCharge <dbl>,
## #   moe2D_GCUT_PEOE_0 <dbl>, moe2D_GCUT_PEOE_1 <dbl>,
## #   moe2D_GCUT_PEOE_2 <dbl>, moe2D_GCUT_PEOE_3 <dbl>,
…
If we were intersted in compounds where dhfr was active, some quick manipulation could reveal those probabilities.

```r
get_common_predictions(models_list, test_x, threshold = 0) %>%
  mutate(other = (1 - agreeance)) %>%
  select(-agreeance) %>%
  filter(other >= 0.70) %>%
  arrange(desc(other))
```

```
## # A tibble: 34 x 7
##       ID glmboost   pls    rf    earth rotationForestCp other
##    <int>    <dbl> <dbl> <dbl>    <dbl>            <dbl> <dbl>
##  1    34  0.0306  0.236 0.004 2.22e-16           0.0724 0.931
##  2    57  0.0199  0.268 0.004 2.22e-16           0.0796 0.926
##  3    47  0.0492  0.261 0     2.22e-16           0.0796 0.922
##  4    48  0.0578  0.227 0.026 2.22e-16           0.0928 0.919
##  5    63  0.0328  0.268 0.034 2.22e-16           0.0796 0.917
##  6    51  0.0699  0.249 0.024 2.22e-16           0.0724 0.917
##  7    49  0.0686  0.244 0.026 2.22e-16           0.0928 0.914
##  8    64  0.0416  0.319 0.01  2.22e-16           0.0796 0.910
##  9     1  0.00776 0.132 0.156 2.22e-16           0.160  0.909
## 10    61  0.0382  0.274 0.07  2.22e-16           0.0796 0.908
## # ... with 24 more rows
```
…
</br>

The following tibble shows which model was had the highest accuracy in predicting the activity of dhfr in compounds.

```r
model_performance <- get_performance(models_list, test_x, test_y)
model_performance
```

```
## # A tibble: 90 x 3
##    method           measure       score
##    <chr>            <chr>         <dbl>
##  1 glmboost         Accuracy      0.906
##  2 rf               Accuracy      0.891
##  3 pls              Accuracy      0.875
##  4 rotationForestCp Accuracy      0.875
##  5 earth            Accuracy      0.859
##  6 glmboost         AccuracyLower 0.807
##  7 rf               AccuracyLower 0.788
##  8 pls              AccuracyLower 0.768
##  9 rotationForestCp AccuracyLower 0.768
## 10 earth            AccuracyLower 0.750
## # ... with 80 more rows
```
…
You can call this function if you were interested in a table version of the imp_vars object.

```r
var_imp_raw(models_list)
```

```
## # A tibble: 555 x 4
##    model    features           Overall  rank
##    <chr>    <chr>                <dbl> <int>
##  1 glmboost moe2D_PEOE_VSA.0.1   100       1
##  2 glmboost moe2D_PEOE_VSA.4.1    55.9     2
##  3 glmboost moe2D_vsa_other       49.6     3
##  4 glmboost moe2D_PEOE_RPC..1     49       4
##  5 glmboost moe2D_PEOE_VSA.3      43.8     5
##  6 glmboost moe2D_PEOE_VSA_NEG    42.9     6
##  7 glmboost moe2D_kS_aaNH         31.4     7
##  8 glmboost moe2D_density         23.9     8
##  9 glmboost moe2D_a_ICM           23.6     9
## 10 glmboost moeGao_chi3c_C        22.0    10
## # ... with 545 more rows
```
…
Here is the final scaled ratings of variable importance found by our list of models for dhfr.

```r
var_imp_overall(models_list)
```

```
## # A tibble: 111 x 4
##    features            rank rank_place rank_scaled
##    <chr>              <dbl>      <int>       <dbl>
##  1 moe2D_PEOE_VSA.0.1   554          1       1    
##  2 moe2D_PEOE_VSA.4.1   551          2       0.994
##  3 moe2D_vsa_other      530          3       0.953
##  4 moe2D_PEOE_VSA.3     502          4       0.899
##  5 moe2D_BCUT_SMR_0     492          5       0.880
##  6 moe2D_PEOE_RPC..1    491          6       0.878
##  7 moe2D_vsa_acc        483          7       0.862
##  8 moe2D_PEOE_VSA_NEG   472          8       0.841
##  9 moe2D_a_ICM          438          9       0.775
## 10 moe2D_kS_aaN         434         10       0.767
## # ... with 101 more rows
```
…
